24,10
1,2,3,5,11,13,14,79,88,93
0,0,0,0,5,1,0,0,0,0
1,0,0,0,5,0,1,0,0,1
1,1,0,0,5,0,1,0,0,1
3,3,1,0,0,0,0,1,0,0
3,4,1,0,0,0,0,1,0,0
3,5,1,0,0,0,0,1,0,0
3,6,1,0,0,0,0,1,0,0
3,7,1,0,0,0,0,1,0,0
3,8,1,0,0,0,0,1,0,0
3,10,1,0,0,0,0,1,0,0
2,5,0,0,0,0,0,0,0,0
2,6,0,0,0,0,0,0,0,0
2,7,0,0,0,0,0,0,0,0
2,8,0,0,0,0,0,0,0,0
2,9,0,0,0,0,0,0,0,0
2,10,0,0,0,0,0,0,0,0
2,12,0,0,0,0,0,0,0,0
0,7,0,0,0,0,0,0,1,0
0,9,0,0,0,0,0,0,1,0
0,10,0,0,0,0,0,0,1,0
0,11,0,0,0,0,0,0,1,0
0,12,0,0,0,0,0,0,1,0
0,6,2,0,0,0,0,0,0,0
1,7,0,1,0,0,0,0,0,0
