0.014543729
0.031456076
0.035495028
0.018465095
0.018136482
0.039860953
0.015713326
0.014249834
0.015729194
0.024103481
0.028840441
0.012926956
0.021957848
0.017885146
0.013888787
0.013468711
0.010939532
0.015078997
0.010160074
0.010757491
0.016708365
0.014137718
0.037595541
0.021568274
0.064128354
0.021434221
0.009996054
0.014760458
0.015546999
0.069389314
0.010786756
0.015755944
0.021408464
0.072616062
0.013998301
0.008205958
0.013701057
0.02618525
0.06007286
0.008120359
0.008650917
0.010285971
0.035777941
0.01827705
0.007234629